{
  "headline": "{txt:#40ab2b:FTV}",
  "type": "list",
  "compress": true,
  "background": "https://preview.colorkit.co/color/ffffff.png?size=wallpaper&static=true",
  "transparent": 1,
  "template": {
    "type": "teaser",
    "layout": "0,0,5,3",
    "color": "#ffffff",
    "alignment": "center",
    "imageFiller": "smart",
    "properties": {
      "label:duration": "Live",
      "label:extension": "{ico:msx-red:live-tv}",
      "progress:color": "msx-red",
      "tizen:buffer:size": "30",
      "tizen:buffer:timeout": "60",
      "button:content:icon": "build",
      "button:content:action": "content:request:interaction:init@http://msx.benzac.de/interaction/tizen.html"
    }
  },
  "items": [
    {
      "title": "Midnite",
      "playerLabel": "Midnite",
      "layout": "1,0,6,4",
      "image": "https://fashiontv.com/_next/image?url=https%3A%2F%2Fcdn.castify.ai%2Ffiles%2Fvideo_libraries%2Flw%2F196%2F30%2F647%2FrecgDL0RMWzVjY3DG%2Fcarousel_thumb_320_180.jpg&w=1080&q=75",
      "action": "video:https://fash1043.cloudycdn.services:443/slive/_definst_/ftv_ftv_midnite_k1y_27049_midnite_secr_108_hls.smil/chunklist_b3628000_t64MTA4MHA=.m3u8"
    },
    {
      "title": "Singapore",
      "playerLabel": "Singapore",
      "image": "https://fashiontv.com/_next/image?url=https%3A%2F%2Fcdn.castify.ai%2Ffiles%2Fvideo_libraries%2Flw%2F196%2F30%2F647%2Freczas31PcpZEW5aI%2Fcarousel_thumb_320_180.jpg&w=1080&q=75",
      "action": "video:https://fash1043.cloudycdn.services/slive/_definst_/ftv_ftv_pg16_asi_7ms_43480_1080p_1665_hls.smil/chunklist_b4878000_t64MTA4MHA=.m3u8"
    },
    {
      "title": "Paris",
      "playerLabel": "Paris",
      "image": "https://fashiontv.com/_next/image?url=https%3A%2F%2Fcdn.castify.ai%2Ffiles%2Fvideo_libraries%2Flw%2F196%2F30%2F647%2FrecJDPwaQI08GBTcb%2Fcarousel_thumb_320_180.jpg&w=1080&q=75",
      "action": "video:https://stream-us-east-1.getpublica.com/playlist.m3u8?network_id=5457"
    },
    {
      "title": "New York",
      "playerLabel": "New York",
      "image": "https://fashiontv.com/_next/image?url=https%3A%2F%2Fcdn.castify.ai%2Ffiles%2Fvideo_libraries%2Flw%2F196%2F30%2F647%2FrecYWWuAjiG3sTLia%2Fcarousel_thumb_320_180.jpg&w=1080&q=75",
      "action": "video:https://fash1043.cloudycdn.services:443/slive/_definst_/ftv_ftv_new_york_9dd_43432_default_1596_hls.smil/chunklist_b4628000_t64MTA4MHA=.m3u8"
    },
    {
      "title": "Johannesburg",
      "playerLabel": "Johannesburg",
      "image": "https://fashiontv.com/_next/image?url=https%3A%2F%2Fcdn.castify.ai%2Ffiles%2Fvideo_libraries%2Flw%2F196%2F30%2F647%2FrecfEa1F0QJXhzBsh%2Fcarousel_thumb_320_180.jpg&w=1080&q=75",
      "action": "video:https://fashs043.cloudycdn.services:443/scte/africa/africa_chunklist.m3u8"
    },
    {
      "title": "Tokyo",
      "playerLabel": "Tokyo",
      "image": "https://fashiontv.com/_next/image?url=https%3A%2F%2Fcdn.castify.ai%2Ffiles%2Fvideo_libraries%2Flw%2F196%2F30%2F647%2FrecjolmXUd22GI6xX%2Fcarousel_thumb_320_180.jpg&w=1080&q=75",
      "action": "video:https://fash1043.cloudycdn.services/slive/_definst_/ftv_ftv_pg16_asi_7ms_43480_1080p_1665_hls.smil/chunklist_b4878000_t64MTA4MHA=.m3u8"
    },
    {
      "title": "Mumbai",
      "playerLabel": "Mumbai",
      "image": "https://fashiontv.com/_next/image?url=https%3A%2F%2Fcdn.castify.ai%2Ffiles%2Fvideo_libraries%2Flw%2F196%2F30%2F647%2FrecgGEwXvMqlseqH5%2Fcarousel_thumb_320_180.jpg&w=1080&q=75",
      "action": "video:https://fash1043.cloudycdn.services/slive/_definst_/ftv_ftv_pg16_asi_mig_43871_1080p_2121_hls.smil/playlist.m3u8"
    }
  ]
}
